Strings and regex in R
…
---

class: exercise

# Your turn

How many `object`s are there in the effect description? Replace `object` with a different noun. 

```r
spells
```

```
## # A tibble: 91 x 3
##   incantation effect                     type 
##   <chr>       <chr>                      <chr>
## 1 Accio       Summons an object          Charm
## 2 Aguamenti   Shoots water from wand     Charm
## 3 Alohomora   Opens locked objects       Charm
## 4 Anapneo     Clears the target's airway Spell
## 5 Aparecium   Reveals invisible ink      Spell
## # … with 86 more rows
```
…
